<svg xmlns="http://www.w3.org/2000/svg" width="1897" height="9" viewBox="0 0 1897 9">
  <metadata><?xpacket begin="﻿" id="W5M0MpCehiHzreSzNTczkc9d"?>
<x:xmpmeta xmlns:x="adobe:ns:meta/" x:xmptk="Adobe XMP Core 5.6-c142 79.160924, 2017/07/13-01:06:39        ">
   <rdf:RDF xmlns:rdf="http://www.w3.org/1999/02/22-rdf-syntax-ns#">
      <rdf:Description rdf:about=""/>
   </rdf:RDF>
</x:xmpmeta>
                                                                                                    
                                                                                                    
                                                                                                    
                                                                                                    
                                                                                                    
                                                                                                    
                                                                                                    
                                                                                                    
                                                                                                    
                                                                                                    
                                                                                                    
                                                                                                    
                                                                                                    
                                                                                                    
                                                                                                    
                                                                                                    
                                                                                                    
                                                                                                    
                                                                                                    
                                                                                                    
                           
<?xpacket end="w"?></metadata>
<defs>
    <style>
      .cls-1 {
        fill-rule: evenodd;
      }
    </style>
  </defs>
  <g id="Artboard_1" data-name="Artboard 1">
    <path id="lineas-fondo.png" class="cls-1" d="M950,0h-2V8h-3V2h-1V8h-4V2h-1V8h-4V2h-1V8h-4V2h-1V8h-3V0h-2V8h-4V2h-1V8h-4V2h-1V8h-4V2h-1V8h-4V2h-1V8h-3V0h-2V8h-4V2h-1V8h-4V2h-1V8h-4V2h-1V8h-4V2h-1V8h-3V0h-2V8h-4V2h-1V8h-4V2h-1V8h-4V2h-1V8h-4V2h-1V8h-3V0h-2V8h-4V2h-1V8h-4V2h-1V8h-4V2h-1V8h-4V2h-1V8h-3V0h-2V8h-4V2h-1V8h-4V2h-1V8h-4V2h-1V8h-4V2h-1V8h-3V0h-2V8h-4V2h-1V8h-4V2h-1V8h-4V2h-1V8h-4V2h-1V8h-3V0h-2V8h-4V2h-1V8h-4V2h-1V8h-4V2h-1V8h-4V2h-1V8h-3V0h-2V8h-4V2h-1V8h-4V2h-1V8h-4V2h-1V8h-4V2h-1V8h-3V0h-2V8h-4V2h-1V8h-4V2h-1V8h-4V2h-1V8h-4V2h-1V8h-3V0h-2V8h-4V2h-1V8h-4V2h-1V8h-4V2h-1V8h-4V2h-1V8h-3V0h-2V8h-4V2h-1V8h-4V2h-1V8h-4V2h-1V8h-4V2h-1V8h-3V0h-2V8h-4V2h-1V8h-4V2h-1V8h-4V2h-1V8h-4V2h-1V8h-3V0h-2V8h-4V2h-1V8h-4V2h-1V8h-4V2h-1V8h-4V2h-1V8h-3V0h-2V8h-4V2h-1V8h-4V2h-1V8h-4V2h-1V8h-4V2h-1V8h-3V0h-2V8h-4V2h-1V8h-4V2h-1V8h-4V2h-1V8h-4V2h-1V8h-3V0h-2V8h-4V2h-1V8h-4V2h-1V8h-4V2h-1V8h-4V2h-1V8h-3V0h-2V8h-4V2h-1V8h-4V2h-1V8h-4V2h-1V8h-4V2h-1V8h-3V0h-2V8h-4V2h-1V8h-4V2h-1V8h-4V2h-1V8h-4V3h-1V8h-3V0h-2V8h-3V2h-1V8h-4V2h-1V8h-4V2h-1V8h-4V2h-1V8h-3V0h-2V8h-4V2h-1V8h-4V2h-1V8h-4V2h-1V8h-4V2h-1V8h-3V0h-2V8h-4V2h-1V8h-4V2h-1V8h-4V2h-1V8h-4V2h-1V8h-3V0h-2V8h-4V2h-1V8h-4V2h-1V8h-4V2h-1V8h-4V2h-1V8h-3V0h-2V8h-4V2h-1V8h-4V2h-1V8h-4V2h-1V8h-4V2h-1V8h-3V0h-2V8h-4V2h-1V8h-4V2h-1V8h-4V2h-1V8h-4V2h-1V8h-3V0h-2V8h-4V2h-1V8h-4V2h-1V8h-4V2h-1V8h-4V2h-1V8h-3V0h-2V8h-4V2h-1V8h-4V2h-1V8h-4V2h-1V8h-4V2h-1V8h-3V0h-2V8h-4V2h-1V8h-4V2h-1V8h-4V2h-1V8h-4V2h-1V8h-3V0h-2V8h-4V2h-1V8h-4V2h-1V8h-4V2h-1V8h-4V2h-1V8h-3V0h-2V8h-4V2h-1V8h-4V2h-1V8h-4V2h-1V8h-4V2h-1V8h-3V0h-2V8h-4V2h-1V8h-4V2h-1V8h-4V2h-1V8h-4V2h-1V8h-3V0h-2V8h-4V2h-1V8h-4V2h-1V8h-4V2h-1V8h-4V2h-1V8h-3V0h-2V8h-4V2h-1V8h-4V2h-1V8h-4V2h-1V8h-4V2h-1V8h-3V0h-2V8h-4V2h-1V8h-4V2h-1V8h-4V2h-1V8h-4V2h-1V8h-3V0h-2V8H96V2H95V8H91V2H90V8H86V2H85V8H81V2H80V8H77V0H75V8H71V2H70V8H66V2H65V8H61V2H60V8H56V2H55V8H52V0H50V8H46V2H45V8H41V2H40V8H36V2H35V8H31V2H30V8H27V0H25V8H21V2H20V8H16V2H15V8H11V2H10V8H6V3H5V8H2V0H0V9H1897V8h-4V2h-1V8h-4V2h-1V8h-4V2h-1V8h-4V2h-1V8h-3V0h-2V8h-4V2h-1V8h-4V2h-1V8h-4V2h-1V8h-4V2h-1V8h-3V0h-2V8h-4V2h-1V8h-4V2h-1V8h-4V2h-1V8h-4V2h-1V8h-3V0h-2V8h-4V2h-1V8h-4V2h-1V8h-4V2h-1V8h-4V2h-1V8h-3V0h-2V8h-4V2h-1V8h-4V2h-1V8h-4V2h-1V8h-4V2h-1V8h-3V0h-2V8h-4V2h-1V8h-4V2h-1V8h-4V2h-1V8h-4V2h-1V8h-3V0h-2V8h-4V2h-1V8h-4V2h-1V8h-4V2h-1V8h-4V2h-1V8h-3V0h-2V8h-4V2h-1V8h-4V2h-1V8h-4V2h-1V8h-4V2h-1V8h-3V0h-2V8h-4V2h-1V8h-4V2h-1V8h-4V2h-1V8h-4V2h-1V8h-3V0h-2V8h-4V2h-1V8h-4V2h-1V8h-4V2h-1V8h-4V2h-1V8h-3V0h-2V8h-4V2h-1V8h-4V2h-1V8h-4V2h-1V8h-4V2h-1V8h-3V0h-2V8h-4V2h-1V8h-4V2h-1V8h-4V2h-1V8h-4V2h-1V8h-3V0h-2V8h-4V2h-1V8h-4V2h-1V8h-4V2h-1V8h-4V2h-1V8h-3V0h-2V8h-4V2h-1V8h-4V2h-1V8h-4V2h-1V8h-4V2h-1V8h-3V0h-2V8h-4V2h-1V8h-4V2h-1V8h-4V2h-1V8h-4V2h-1V8h-3V0h-2V8h-4V2h-1V8h-4V2h-1V8h-4V2h-1V8h-4V2h-1V8h-3V0h-2V8h-4V2h-1V8h-4V2h-1V8h-4V2h-1V8h-4V2h-1V8h-3V0h-2V8h-4V2h-1V8h-4V2h-1V8h-4V2h-1V8h-4V2h-1V8h-3V0h-2V8h-4V2h-1V8h-4V2h-1V8h-4V2h-1V8h-4V3h-1V8h-3V0h-2V8h-3V2h-1V8h-4V2h-1V8h-4V2h-1V8h-4V2h-1V8h-3V0h-2V8h-4V2h-1V8h-4V2h-1V8h-4V2h-1V8h-4V2h-1V8h-3V0h-2V8h-4V2h-1V8h-4V2h-1V8h-4V2h-1V8h-4V2h-1V8h-3V0h-2V8h-4V2h-1V8h-4V2h-1V8h-4V2h-1V8h-4V2h-1V8h-3V0h-2V8h-4V2h-1V8h-4V2h-1V8h-4V2h-1V8h-4V2h-1V8h-3V0h-2V8h-4V2h-1V8h-4V2h-1V8h-4V2h-1V8h-4V2h-1V8h-3V0h-2V8h-4V2h-1V8h-4V2h-1V8h-4V2h-1V8h-4V2h-1V8h-3V0h-2V8h-4V2h-1V8h-4V2h-1V8h-4V2h-1V8h-4V2h-1V8h-3V0h-2V8h-4V2h-1V8h-4V2h-1V8h-4V2h-1V8h-4V2h-1V8h-3V0h-2V8h-4V2h-1V8h-4V2h-1V8h-4V2h-1V8h-4V2h-1V8h-3V0h-2V8h-4V2h-1V8h-4V2h-1V8h-4V2h-1V8h-4V2h-1V8h-3V0h-2V8h-4V2h-1V8h-4V2h-1V8h-4V2h-1V8h-4V2h-1V8h-3V0h-2V8h-4V2h-1V8h-4V2h-1V8h-4V2h-1V8h-4V2h-1V8h-3V0h-2V8h-4V2h-1V8h-4V2h-1V8h-4V2h-1V8h-4V2h-1V8h-3V0h-2V8h-4V2h-1V8h-4V2h-1V8h-4V2h-1V8h-4V2h-1V8h-3V0h-2V8h-4V2h-1V8h-4V2h-1V8h-4V2h-1V8h-4V2h-1V8h-3V0h-2V8h-4V2h-1V8h-4V2h-1V8h-4V2h-1V8h-4V2h-1V8h-3V0h-2V8h-4V2h-1V8h-4V2h-1V8h-4V2h-1V8h-4V2h-1V8h-3V0h-2V8h-4V2h-1V8h-4V2h-1V8h-4V2h-1V8h-4V3h-1V8h-3V0Z"/>
  </g>
</svg>
